code;name;content;date_last_saved
"MM_NO_ABILITY_NSI_CATEGORY_SUBSCRIPTION";"Сообщение об ошибке при попытке подписаться на недопустимые категории сфер деятельности";"Подписка возможна только на сферы деятельности, относящиеся к организации. Следующие сферы деятельности не относятся к Вашей организации:
{% for category in notAccrededCategories %}
%category.code ~ ' ' ~ category.name%{% if not loop.last %},{% endif %}<br />
{% endfor %}";"2019-09-24 12:56:27+04"
